<?xml version="1.0" encoding="utf-8"?>
<!-- Generator: Adobe Illustrator 16.0.0, SVG Export Plug-In . SVG Version: 6.00 Build 0)  -->
<!DOCTYPE svg PUBLIC "-//W3C//DTD SVG 1.1//EN" "http://www.w3.org/Graphics/SVG/1.1/DTD/svg11.dtd">
<svg version="1.1" id="Layer_1" xmlns="http://www.w3.org/2000/svg" xmlns:xlink="http://www.w3.org/1999/xlink" x="0px" y="0px"
	 width="66px" height="93px" viewBox="0 0 66 93" enable-background="new 0 0 66 93" xml:space="preserve">
<path fill="#333232" d="M32.842,4.341c-15.057,0-27.313,12.257-27.313,27.333c0,15.055,12.257,27.318,27.313,27.318
	c15.079,0,27.319-12.263,27.319-27.318C60.161,16.598,47.921,4.341,32.842,4.341z M32.842,45.059
	c-7.376,0-13.364-6.01-13.364-13.385c0-7.354,5.988-13.367,13.364-13.367c7.376,0,13.345,6.013,13.345,13.367
	C46.187,39.049,40.218,45.059,32.842,45.059z"/>
<path fill="#333232" d="M28.644,31.674c0,2.33,1.891,4.208,4.199,4.208c2.313,0,4.203-1.878,4.203-4.208
	c0-2.333-1.89-4.216-4.203-4.216C30.535,27.458,28.644,29.341,28.644,31.674z"/>
<g>
	<g>
		<path fill="#52B8BA" d="M6.257,70.326h1.486l1.867,8.708c0.383,2.001,0.675,4.049,0.9,5.489c0.18-1.44,0.45-3.51,0.81-5.489
			l1.665-8.169c0.067-0.36,0.135-0.539,0.473-0.539h1.598L11.59,86.144c-0.495,0.067-0.832,0.089-1.53,0.089
			c-0.585,0-0.901-0.539-1.08-1.304c-0.9-3.669-3.128-14.065-3.128-14.065C5.762,70.482,5.762,70.326,6.257,70.326z"/>
		<path fill="#52B8BA" d="M21.56,78.222c0,0.991-0.067,2.116-0.248,2.927c-1.553,0.292-3.623,0.359-4.703,0.359
			c0.089,2.385,0.719,3.015,2.092,3.015c0.9,0,1.801-0.27,2.565-0.697c0.113,0.338,0.158,0.877,0.158,1.238
			c0,0.697-1.418,1.236-3.106,1.236c-2.092,0-3.6-0.876-3.6-5.266c0-5.626,2.002-6.435,3.982-6.435
			C20.592,74.601,21.56,75.793,21.56,78.222z M16.631,80.024c0.855,0.021,2.25-0.023,3.039-0.249
			c0.089-0.404,0.112-0.923,0.112-1.35c-0.022-1.62-0.315-2.228-1.283-2.228C17.576,76.198,16.766,76.986,16.631,80.024z"/>
		<path fill="#52B8BA" d="M23.157,75.613c0.878-0.608,1.958-1.012,3.06-1.012c1.148,0,1.576,0.337,1.576,0.945
			c0,0.248-0.045,0.698-0.203,1.08c-0.337-0.18-0.697-0.27-1.08-0.27c-0.495,0-1.058,0.158-1.486,0.517l-0.022,8.845
			c0,0.359-0.022,0.359-1.845,0.359V75.613z"/>
		<path fill="#52B8BA" d="M37.086,77.323c-0.022-0.809-0.202-1.125-1.102-1.125c-0.496,0-1.014,0.113-1.53,0.384v9.136
			c0,0.359-0.067,0.359-1.823,0.359V75.342c0.99-0.448,2.16-0.741,3.397-0.741c0.968,0,1.598,0.246,2.026,0.697
			c0.765-0.428,1.845-0.697,2.768-0.697c2.25,0,2.52,1.147,2.52,3.173v7.944c0,0.359-0.067,0.359-1.823,0.359V77.75
			c0-1.08-0.202-1.529-1.102-1.529c-0.519,0-1.014,0.111-1.509,0.428v9.069c0,0.359,0.024,0.359-1.822,0.359V77.323z"/>
		<path fill="#52B8BA" d="M45.188,75.207c0.382-0.246,1.711-0.606,3.419-0.606c1.937,0,2.792,0.719,2.792,2.746v1.192
			c0,2.587-0.023,5.288-0.136,6.998c-0.608,0.36-1.666,0.765-3.128,0.765c-1.644,0.023-3.218-0.337-3.218-3.419
			c0-3.128,1.486-3.69,2.992-3.69c0.496,0,1.193,0.067,1.644,0.292v-1.776c0-1.058-0.495-1.329-1.395-1.329
			c-1.125,0-2.318,0.224-2.971,0.495c-0.203-0.359-0.248-0.765-0.248-1.036C44.94,75.591,45.008,75.342,45.188,75.207z
			 M48.496,80.563c-0.9,0-1.665,0.315-1.665,2.274c0,1.641,0.583,1.934,1.462,1.934c0.495,0,0.99-0.179,1.192-0.382
			c0.067-0.743,0.067-2.407,0.067-3.623C49.261,80.631,48.81,80.563,48.496,80.563z M47.212,72.237
			c1.014-1.17,2.836-2.632,3.015-2.632c0.428,0,0.765,0.832,0.833,1.373c-0.359,0.426-2.385,1.868-3.15,2.296
			C47.505,73.273,47.212,72.237,47.212,72.237z"/>
		<path fill="#52B8BA" d="M59.431,75.861c0,0.293-0.157,0.653-0.404,0.923c-0.674-0.406-1.351-0.586-2.207-0.586
			c-1.056,0-1.775,0.384-1.775,1.081c0,0.404,0.135,0.765,0.899,1.395l2.092,1.688c0.967,0.945,1.327,1.688,1.327,2.813
			c0,2.001-1.418,3.126-3.712,3.126c-1.597,0-2.746-0.359-2.746-1.146c0-0.271,0.067-0.654,0.316-1.058
			c0.65,0.381,1.372,0.563,2.25,0.563c1.146,0,1.823-0.495,1.823-1.396c0-0.608-0.226-1.147-0.901-1.755l-2.183-1.868
			c-1.013-0.832-1.282-1.643-1.282-2.385c0-1.575,1.147-2.655,3.668-2.655C58.916,74.601,59.431,75.409,59.431,75.861z"/>
	</g>
</g>
</svg>
